{

	"all" : 8,
	"items" : [
		{
			"id": "1",
			"gamename": "ค้นหาศัพท์ ปริศนา",
			"imgurl": "https://gitlab.com/gbagamesstudio/appnetwork/raw/master/images/wordsearch.png",
			"storeurl": "https://play.google.com/store/apps/details?id=com.gbagamesstudio.wordsearchpuzzle"
		},
		{
			"id": "2",
			"gamename": "Scream Monster Go",
			"imgurl": "https://gitlab.com/gbagamesstudio/appnetwork/raw/master/images/smg.png",
			"storeurl": "https://play.google.com/store/apps/details?id=com.gbagamesstudio.screammonstergo"
		},
		{
			"id": "3",
			"gamename": "The Mask Animal หน้ากากทายสัตว์",
			"imgurl": "https://gitlab.com/gbagamesstudio/appnetwork/raw/master/images/themaskanimal.png",
			"storeurl": "https://play.google.com/store/apps/details?id=com.gbagamesstudio.themaskanimal"
		},
		{
			"id": "4",
			"gamename": "ทายดาราไทย ปิดตาแล้ว ทายยากมาก",
			"imgurl": "https://gitlab.com/gbagamesstudio/appnetwork/raw/master/images/taidarathai.png",
			"storeurl": "https://play.google.com/store/apps/details?id=com.gbagamesstudio.taidarathai"
		},
		{
			"id": "5",
			"gamename": "ทายสัตว์ ปิดตาแล้ว ทายยากมาก V.2",
			"imgurl": "https://gitlab.com/gbagamesstudio/appnetwork/raw/master/images/taianimalv2.png",
			"storeurl": "https://play.google.com/store/apps/details?id=com.gbagamesstudio.taianimalv2"
		},
				{
			"id": "6",
			"gamename": "Master Solitaire Puzzle",
			"imgurl": "https://gitlab.com/gbagamesstudio/appnetwork/raw/master/images/mastersolitaire.png",
			"storeurl": "https://play.google.com/store/apps/details?id=com.gbagamesstudio.mastersolitairepuzzle"
		},
				{
			"id": "7",
			"gamename": "Panda Brick and Block Classic!",
			"imgurl": "https://gitlab.com/gbagamesstudio/appnetwork/raw/master/images/pandabandb.png",
			"storeurl": "https://play.google.com/store/apps/details?id=com.gbagamesstudio.pandabandb"
		},
				{
			"id": "8",
			"gamename": "Vegetable Blast Garden",
			"imgurl": "https://gitlab.com/gbagamesstudio/appnetwork/raw/master/images/veggy.png",
			"storeurl": "https://play.google.com/store/apps/details?id=com.gbagamesstudio.veggyblastgarden"
		}
	]

}